<?xml version="1.0" standalone="no"?>
<!DOCTYPE svg PUBLIC "-//W3C//DTD SVG 1.1//EN" "http://www.w3.org/Graphics/SVG/1.1/DTD/svg11.dtd" >
<svg xmlns="http://www.w3.org/2000/svg">
<metadata>Generated by IcoMoon</metadata>
<defs>
<font id="mft-icon" horiz-adv-x="1024">
<font-face units-per-em="1024" ascent="960" descent="-64" />
<missing-glyph horiz-adv-x="1024" />
<glyph unicode="&#x20;" horiz-adv-x="512" d="" />
<glyph unicode="&#xe900;" glyph-name="cancelled" horiz-adv-x="1707" d="M1442.133 841.387c0-2.987-4.267-3.84-11.947-2.56-7.253 1.28-28.587-2.133-52.48-8.96-22.187-5.973-41.813-11.52-44.373-12.373-2.133-0.427-8.533-2.987-13.653-5.973s-13.653-5.12-19.2-5.12c-9.813 0.427-225.707-55.467-229.547-58.88-1.28-1.28 0.427-2.987 3.413-3.84 9.813-3.413 4.693-31.147-5.973-31.147-2.987 0-8.107 3.84-11.52 8.533s-7.253 7.253-8.96 5.547c-1.28-1.707-5.12 0.427-8.107 4.693-5.12 6.827-9.387 5.973-64.853-8.533-32.853-8.96-62.293-17.92-65.28-20.053-2.987-2.56-12.8-5.12-21.333-5.973s-66.56-14.933-128.853-31.573c-160.853-42.667-157.013-41.387-159.147-49.92-1.707-6.4-2.133-6.4-2.56 0s-2.133 6.4-24.747 0c-13.653-3.84-25.6-8.107-26.027-10.24-0.853-1.707-2.987-2.56-5.12-1.28-2.987 1.707-196.693-47.36-264.533-67.413l-18.773-5.547 14.507-14.080c12.373-12.373 13.227-14.080 5.547-12.373-6.4 1.707-9.813 0.427-11.093-4.693-1.707-5.12-2.133-4.267-2.56 2.133 0 4.693-4.693 12.8-10.24 17.92-8.96 8.107-11.947 8.96-23.467 4.693-7.68-2.56-12.8-5.973-11.947-7.253 0.853-1.707 0-7.253-2.133-12.8-3.413-8.533-4.693-8.96-13.227-4.267-5.547 2.987-11.093 7.253-12.373 9.387-3.413 4.693-50.773-8.96-50.773-14.933 0-2.56 2.133-2.987 4.267-1.707 2.56 1.707 4.267-2.56 4.267-9.387 0-6.4 14.933-67.84 32.853-136.533 29.867-112.213 33.707-122.88 38.4-113.067 4.267 10.24 4.693 8.96 3.413-11.947-1.28-17.92 2.987-41.387 17.92-98.56l19.627-75.52 55.893 14.933c50.773 13.227 57.173 16.213 69.973 30.293 8.533 9.813 12.373 11.947 9.387 6.4-3.84-8.107-3.413-9.387 2.133-7.253 3.413 1.707 6.4 5.547 6.4 8.533 0 3.413 2.987 7.253 6.4 8.533 3.413 1.707 6.4 4.693 6.4 7.253 0 2.133-3.84 0.853-8.533-3.413-10.24-9.387-11.093-5.547-1.707 8.533 4.267 6.4 5.12 10.667 2.133 10.667-2.56 0-29.013-6.827-58.88-14.933s-55.893-13.227-57.173-11.52c-1.707 1.707-13.227 41.813-25.6 89.6-20.907 78.507-23.467 86.187-32 86.187-6.827 0-9.813 2.987-11.093 12.8-1.28 8.96 0 12.8 4.267 12.8 3.413 0 5.12-2.56 3.84-5.973s0.427-8.533 3.84-11.093c3.413-2.987 5.973-3.84 5.973-2.133s-10.667 42.667-23.893 90.88c-16.64 61.867-22.187 88.32-18.773 90.453 2.987 1.707 15.36 5.547 28.16 8.533l23.467 5.547-2.56 16.64c-2.133 11.093-1.28 16.213 2.133 16.213 2.56 0 3.84-1.707 2.133-3.84-1.28-2.133-0.427-5.12 2.133-6.827 2.133-1.28 4.267-5.973 4.267-10.667 0-8.533-3.413-8.96 65.28 8.533l37.12 9.387 0.853 22.187 0.853 21.76 1.28-20.053c0.853-11.52 2.987-20.48 4.693-20.48s38.4 9.813 81.92 21.76c43.52 11.52 82.773 22.187 87.467 23.040 68.267 15.787 403.627 108.8 408.747 113.493 3.84 3.84 14.933 6.827 27.307 7.68 11.093 0 26.453 2.133 33.28 4.267l12.8 3.84-11.52 0.427c-22.613 0.853-11.52 14.933 14.933 18.773 14.507 2.133 15.787 1.707 13.653-5.973-1.707-4.267-0.853-8.107 0.853-8.107 4.267 0 353.707 92.587 363.947 96.427 5.547 1.707 5.12 2.987-1.28 6.4-3.84 2.56-9.387 2.987-11.52 1.707-2.56-1.28-4.267 0.427-4.267 3.84 0 3.84 2.987 6.827 6.4 6.827 9.387 0 23.467-15.787 23.467-25.6 0-9.387 6.4-11.52 11.093-3.413 1.707 2.56 0.853 5.973-1.707 6.827-2.987 0.853-5.12 3.413-5.12 5.973s2.987 2.987 6.827 1.707c5.973-2.133 6.4-1.707 1.707 3.84-2.987 3.84-4.267 8.107-2.56 9.813s5.973-0.853 9.813-5.547c6.4-8.533 6.4-8.533 3.413 1.28-2.133 7.68-0.853 9.387 5.973 9.387 7.253 0 8.107 1.707 4.693 13.227-4.267 14.507-8.533 21.333-8.533 13.227zM1442.133 776.533c0-2.133-2.56-4.267-5.973-4.267s-7.253-1.707-8.533-3.413c-2.987-4.693 6.4-34.987 10.667-34.987 2.133 0 4.693-6.827 6.4-14.933 1.28-8.107 4.267-14.933 5.973-14.933s3.413-5.12 3.413-11.52c0-6.827 1.28-16.64 2.56-22.613l2.987-10.667-4.693 10.24c-2.56 5.547-5.12 9.387-5.973 8.533-2.987-2.987 2.56-25.173 5.547-23.467 1.707 1.28 5.12-3.84 7.68-10.667 4.267-11.093 4.267-12.8-1.28-10.667-3.413 1.28-5.547 0.853-4.693-0.853 4.267-7.253 54.613-202.24 52.48-204.373-1.707-2.133-216.747-60.587-316.16-86.187-97.28-25.173-217.6-57.6-219.307-58.88-1.28-0.853 1.28-7.253 5.547-14.080 5.973-10.667 6.4-12.373 0.427-10.24-3.413 1.28-6.4 4.693-6.4 7.68 0 2.56-2.133 1.707-4.693-1.707-3.84-5.547-4.267-5.547-3.413 0 1.707 16.213-0.427 16.64-48.213 3.84-64.853-17.067-60.16-14.507-53.76-26.027 2.987-5.547 7.68-11.093 9.813-12.8 2.56-2.133 2.56-3.413-0.853-3.413-2.56 0-8.533 5.973-12.8 12.8-4.693 8.533-9.813 11.947-14.080 10.24-3.413-1.28-15.36-4.267-26.453-6.827-13.653-3.413-20.48-7.253-20.48-11.52 0-5.12-0.853-5.547-3.413-1.707-2.56 4.267-14.507 2.56-49.92-7.253-26.027-6.827-76.8-20.053-113.067-29.44-36.267-9.813-70.4-19.627-75.947-22.613-9.813-5.12-34.987-38.4-34.987-46.507 0-5.547 7.253-4.693 40.533 4.693 16.64 4.693 62.72 17.067 102.4 27.733 40.107 10.24 119.467 31.573 177.067 46.933s123.733 32.853 147.2 39.253c23.467 5.973 43.52 12.373 44.8 14.080 1.28 2.133 5.12 3.413 8.533 3.413 17.92-1.28 25.6 1.28 25.6 8.533 0 5.12 0.853 5.973 3.413 1.707 2.133-2.987 6.4-4.693 9.813-3.413s17.067 5.12 30.72 8.96c17.067 4.693 23.467 8.533 21.333 11.947-2.133 3.84-1.707 3.84 3.413 0 5.12-4.267 14.933-2.56 49.067 6.827 23.040 6.4 117.333 31.573 208.64 55.893 91.733 24.32 167.68 45.227 169.387 46.507 4.267 3.84-94.293 368.213-101.973 377.173-7.253 8.107-18.347 9.813-18.347 2.987zM1336.747 716.373c-7.68-2.133-14.080-5.973-14.080-8.96 0-4.267 46.933-183.893 48.64-185.6 0.427-0.427 10.667 2.133 23.040 5.547 19.627 5.973 22.187 7.68 19.627 15.36-1.28 5.12-12.8 46.507-24.747 92.587-24.32 91.307-23.467 89.6-52.48 81.067zM1197.653 679.68c-4.693-1.28-6.827-4.267-5.547-8.533 1.28-3.413 2.56-7.68 2.56-9.813s4.267-4.267 9.813-5.12c17.067-2.56 36.693-76.8 22.613-88.32-6.827-5.973-3.84-27.307 3.84-24.32 2.987 0.853 8.96-0.853 13.653-3.84 7.68-5.547 11.52-14.933 22.613-56.32 3.413-14.507 6.827-18.347 14.080-18.773s7.68-0.853 2.133-2.56c-10.24-2.56-9.813-11.947 0.853-22.613 8.96-8.96 19.627-10.24 42.24-5.973 16.64 3.413 18.347 17.067 2.56 23.040-12.373 4.693-11.093 2.133-23.893 51.2-8.96 34.133-19.2 51.2-34.133 56.32-4.693 1.707-5.12 3.413-0.427 8.107 13.227 14.080-3.413 86.187-23.467 101.547-10.667 8.533-30.293 11.093-49.493 5.973zM1152 666.88c-12.8-3.84-23.893-7.253-24.32-7.68-3.413-2.133 5.12-19.2 9.813-19.2 9.387 0 14.080-13.653 49.92-149.333 2.987-10.667 7.253-19.2 10.24-19.2 2.56 0 6.4-1.28 8.107-2.987 1.707-2.133-0.427-3.413-4.267-3.413-7.68 0-7.68-4.693 0-30.293 0.853-3.84-0.853-8.96-4.267-11.947-6.827-5.547-4.267-21.76 3.413-21.76 14.080 0.427 23.893 5.973 23.893 14.080 0 8.533 0.427 8.533 5.547 1.28 6.827-9.387 24.32-5.973 24.32 5.12 0 5.547-0.853 5.547-6.4-1.707-5.973-8.107-5.973-8.107-6.4 1.28 0 5.12 1.707 9.813 3.84 10.667 6.827 2.56 0 29.013-7.68 29.013-4.693 0-5.547 0.853-1.707 3.413 4.267 2.56-0.853 26.453-20.053 99.413-32 118.613-29.44 110.507-35.413 110.080-2.987 0-15.787-3.413-28.587-6.827zM1025.28 632.747c-24.747-7.253-30.72-19.627-12.8-26.453 8.107-3.413 12.8-16.64 36.267-105.387 27.733-106.24 29.013-112.64 22.187-112.64-2.133 0-4.267-5.12-4.267-11.093 0-10.24 1.28-11.093 13.653-8.533 30.293 5.973 46.080 11.52 46.080 16.64 0 2.56-14.933 61.013-32.853 129.707-25.173 94.72-34.987 125.013-39.68 124.587-3.413 0-16.64-3.413-28.587-6.827zM952.747 613.547c-25.173-6.827-31.147-10.24-31.147-17.067 0-4.693 3.413-9.387 8.533-10.667 8.533-2.133 16.213-22.613 32.427-87.893 4.693-18.773 9.813-30.293 14.933-33.28 8.96-4.693 10.667-14.933 3.413-17.493-2.987-0.853-1.28-13.227 5.12-37.12 7.68-28.16 8.533-37.12 4.693-43.52-6.4-10.24-6.4-20.907 0-20.907 2.56 0 20.053 4.267 38.4 8.96 25.6 6.827 33.28 10.667 31.573 15.36-1.28 3.413-2.56 8.107-2.56 10.24 0 2.56-1.707 3.413-3.413 2.133-9.387-5.547-16.213 12.8-41.813 108.8-23.893 90.027-26.88 104.533-21.333 108.8 7.253 5.12 4.693 23.040-3.413 22.613-2.56 0-18.773-4.267-35.413-8.96zM888.747 596.907c-7.68-2.133-14.080-5.973-14.080-8.533s6.827-31.147 15.36-62.72c13.227-49.493 18.347-62.293 34.56-84.907 10.667-14.933 20.053-26.88 20.907-26.88 1.28 0 1.28 1.28 0.427 3.413-1.28 1.707-11.093 37.547-22.187 79.36-18.347 68.267-19.627 77.227-13.653 81.493 4.267 2.987 5.973 8.533 4.267 14.080-2.56 10.24-5.12 10.667-25.6 4.693zM790.187 570.453c-10.24-2.987-18.347-6.4-18.347-8.107 0.427-2.133 0.427-6.4 0.427-9.813s2.56-6.4 5.973-6.4c7.68 0 33.707-32.427 30.293-37.973-1.28-2.56 7.253-40.533 19.2-84.48 23.467-88.32 24.32-93.013 14.933-96.853-6.4-2.133-8.96-15.787-3.84-20.907 2.133-2.133 38.827 7.253 42.667 11.093 1.28 0.853-5.973 31.147-15.787 67.413-14.933 56.747-19.627 69.12-36.693 92.587-10.667 14.933-18.347 27.733-17.493 29.013 1.28 0.853 29.867-37.547 63.573-85.333 61.867-88.32 68.267-94.293 84.907-83.627 5.12 3.413 5.12 7.68-2.56 32.853-7.253 23.893-19.627 44.373-72.107 117.76-38.827 53.76-66.133 88.32-69.973 87.893s-14.933-2.56-25.173-5.12zM700.587 546.133c-7.68-1.707-14.933-4.267-16.213-5.547-4.267-3.84 2.987-20.053 8.533-20.053 10.24 0 18.773-14.933 26.453-48.64 7.253-31.573 7.253-33.707 0.427-38.827-5.547-3.84-6.827-8.533-4.693-16.64 1.28-5.973 4.267-9.813 6.4-8.533 2.133 0.853 7.68 0 12.373-2.56 7.68-4.267 16.213-26.88 29.867-80.213 5.973-23.893 19.2-32.427 44.8-29.013 10.24 1.707 20.053 4.693 21.333 6.827 3.84 5.973-1.707 14.933-11.52 19.2-7.253 3.413-12.373 13.653-20.48 42.667-13.653 47.36-18.773 56.747-31.573 60.16-9.813 2.56-10.24 2.56-3.413 14.507 5.973 10.667 6.4 15.36 1.707 36.693-11.093 54.187-32 76.8-64 69.973zM642.987 531.2c-11.52-2.987-21.76-6.827-23.040-7.68-3.84-4.267 3.413-20.053 9.813-20.053 8.107 0 9.387-3.413 37.547-109.227 24.32-91.307 27.307-108.373 19.627-108.373-5.12 0-5.547-8.533-0.427-16.213 5.547-8.96 61.013 6.4 58.453 15.787-4.693 14.933-66.56 247.040-66.56 249.6 0 3.84-12.373 2.56-35.413-3.84zM1394.347 521.813c-18.773-5.547-26.027-14.507-17.067-20.053 5.973-3.413 5.12-27.307-1.28-32.427-5.12-4.267-4.267-21.333 1.707-21.333 1.28 0 9.387 1.707 17.493 3.84 8.107 2.56 23.040 6.4 33.28 8.96 14.933 3.84 17.92 6.4 17.92 14.933 0 7.253-2.56 10.667-9.387 11.52-7.68 0.853-10.667 5.547-14.080 19.2-2.56 9.813-5.12 18.347-6.4 19.627-1.28 0.853-11.093-1.28-22.187-4.267zM548.693 502.613c2.987-10.667 14.507-20.907 19.627-17.92 1.707 0.853 4.267-0.427 5.973-2.987 1.707-3.413 1.28-3.84-1.707-2.133s-5.12 2.133-5.12 0.853c0-0.853 11.52-45.653 26.027-98.56 21.76-81.92 25.173-100.267 23.040-117.76-2.56-18.347-2.133-20.907 5.12-20.907 16.213 0.427 42.24 34.987 29.867 40.107-3.84 1.28-3.84 2.133 0.427 2.133 7.253 0.427 6.4 33.28-1.707 66.56-3.84 15.36-8.96 27.733-11.093 27.733s-2.56 2.133-1.28 4.267c2.56 4.267-10.667 59.307-20.053 83.2l-5.12 12.373-2.987-10.24c-2.56-8.96-2.987-8.107-3.413 5.547-0.427 23.040-16.64 37.12-41.813 37.12-17.493 0-18.773-0.427-15.787-9.387zM515.413 495.36c-13.653-11.947-14.080-14.080-14.080-43.947 0-38.827 4.267-55.040 12.8-52.053 4.693 2.133 5.973 0.853 3.413-5.12-2.56-7.68-2.133-7.68 6.827 0 8.96 8.107 8.96 8.107 7.68-0.427-0.853-5.12-3.413-11.52-5.973-14.933-8.533-10.667-8.533-18.347 0.853-52.907 17.493-62.293 32-82.347 64-85.76 16.213-2.133 19.2-1.28 19.2 5.12 0 4.267-4.267 11.52-9.813 16.64-7.253 6.4-14.507 27.307-28.16 77.227-14.933 56.747-20.48 70.827-31.573 83.2-11.093 11.947-11.52 12.8-1.707 4.693 13.653-12.373 13.653-11.947 4.267 20.907-4.693 18.347-5.547 28.16-2.987 34.987 5.547 12.373 2.987 24.747-5.12 24.747-2.987 0-11.947-5.547-19.627-12.373zM406.613 468.053c-10.24-2.133-18.347-6.4-18.347-8.96s5.973-25.6 12.8-51.627c39.68-143.787 48.213-182.613 42.24-187.307-9.387-6.827-5.12-19.627 6.827-19.627 7.253 0 13.227 5.973 25.173 26.027l15.36 25.6-21.76 81.92c-11.947 45.227-23.040 82.773-25.173 84.053-1.707 1.28-3.413 8.107-3.413 14.933-0.853 17.493-6.827 37.547-11.947 38.827-2.133 0.427-11.947-1.28-21.76-3.84zM294.4 439.040c0-2.133-1.707-2.987-4.267-1.707-6.827 4.267-4.693-6.4 3.84-20.907 4.693-7.253 10.667-22.187 13.227-33.28 5.547-21.76 10.667-24.32 32-16.213 10.24 3.84 11.093 5.973 8.533 18.347-5.973 26.453-15.36 43.947-27.307 51.2-14.080 8.107-26.027 9.387-26.027 2.56zM257.28 428.8c-12.8-8.96-19.627-32.427-16.213-54.613 5.547-33.707 17.067-50.773 57.6-83.627 21.333-17.067 41.813-37.12 45.653-44.8 4.267-8.107 7.253-24.32 7.68-41.813 0-15.787 1.707-29.867 2.987-31.147 5.547-5.973 29.867 11.947 35.84 26.453 5.12 11.947 5.547 19.2 1.707 37.973-2.56 12.8-6.827 23.040-8.96 23.040s-3.84 2.56-3.413 5.547c0.853 8.533-0.427 13.227-7.253 22.187-5.547 7.253-6.827 7.68-10.667 2.133s-4.267-5.12-2.133 0.853c1.28 5.12-8.107 15.787-33.707 37.547-20.907 17.493-37.12 34.56-38.827 40.96-1.28 5.547-5.12 11.947-8.107 13.653-3.413 2.133-4.267 9.387-2.133 24.32 1.707 11.947 3.413 18.773 3.84 15.36 0-3.413 1.707-4.693 2.987-3.413 3.84 3.413-6.4 15.787-12.8 15.787-2.56 0-8.96-2.987-14.080-6.4zM302.933 247.040c-26.453-7.253-25.6-6.4-20.907-21.76 13.227-42.24 17.493-49.493 29.013-54.613 6.827-2.56 17.92-4.267 24.32-3.413 10.667 0.853 11.947 2.987 11.093 11.947-0.853 5.973-3.413 11.093-5.547 11.947s-7.68 14.933-12.8 31.147c-4.693 16.213-9.387 29.44-9.387 29.013-0.427 0-7.68-2.133-15.787-4.267z" />
<glyph unicode="&#xe901;" glyph-name="mecca-logo" d="M284.444 877.625c-122.425-44.601-231.652-84.651-242.574-88.747l-19.115-7.282 0.91-98.304 1.365-98.304 486.969-163.84 486.969 163.84 1.365 98.304 0.91 97.849-12.288 5.461c-28.672 11.378-476.956 173.397-479.232 172.942-1.365 0-102.4-36.864-225.28-81.92zM670.379 838.94c86.926-31.858 157.013-59.164 155.193-60.53-1.365-1.365-72.363-26.396-157.924-55.524l-155.648-53.248-154.738 52.338c-85.106 29.127-156.558 54.158-158.379 55.979-2.731 2.276 294.912 115.143 310.841 117.874 1.365 0.455 73.273-25.486 160.654-56.889zM22.756 282.34c0-136.078 1.365-177.948 5.916-181.134 2.731-2.276 112.868-40.505 244.395-85.106l238.933-80.555 238.933 80.555c131.527 44.601 241.664 82.83 244.85 85.106 8.192 6.372 8.192 358.172 0 358.172-12.743 0-15.929-8.647-21.39-49.152-8.647-70.542-32.313-123.335-66.901-149.732-23.666-17.749-56.889-18.204-79.644-0.455-19.57 14.564-42.78 56.889-51.428 92.843l-6.372 26.852-0.455-25.486c-0.455-30.492-14.564-86.926-27.762-113.323-5.461-10.468-17.749-28.217-28.217-38.684-30.492-33.678-63.716-37.774-95.573-11.378-20.48 16.839-42.325 59.62-49.607 96.028-5.916 29.582-2.731 28.672-40.505 15.474-13.653-4.551-19.57-4.096-40.505 2.731-13.653 5.006-25.031 8.647-25.486 8.647s-3.641-12.288-6.372-26.852c-10.923-56.434-46.876-106.041-81.010-112.412-31.858-5.916-68.722 20.025-91.022 63.26-14.564 29.127-28.672 84.651-29.127 116.508l-0.455 25.486-6.372-26.852c-8.647-36.409-31.403-77.369-51.428-92.388-23.211-18.204-55.979-17.749-79.644 0-34.588 26.396-58.254 79.189-66.901 149.732-3.186 23.211-7.737 43.691-10.468 45.511-15.929 10.923-16.384 7.282-16.384-173.397zM73.273 422.059c10.923-28.217 21.39-43.691 42.78-62.35 30.948-26.852 61.895-24.576 92.388 6.827 10.468 10.923 19.115 21.845 19.115 23.666 0 2.731-152.007 55.524-160.199 55.524-1.82 0 0.455-10.468 5.916-23.666zM872.903 419.328c-42.325-14.108-76.459-27.307-76.459-29.127s8.647-12.743 19.57-23.666c20.025-20.935 42.325-29.127 64.626-23.666 12.743 3.186 39.14 25.031 52.338 43.236 13.653 19.57 28.217 59.62 21.39 59.164-2.731 0-39.595-11.833-81.465-25.941zM277.618 355.157c33.678-86.016 91.932-110.592 138.809-59.164 9.102 10.012 15.929 20.48 14.564 23.666-0.91 3.641-75.093 30.492-154.738 55.979-7.282 2.276-7.282 0.91 1.365-20.48zM671.744 350.606c-42.78-14.108-78.279-28.672-79.189-31.403-3.186-10.468 36.409-45.511 55.979-49.152 35.499-6.372 75.093 27.307 97.394 83.74 5.006 12.743 7.737 23.666 5.916 23.211-1.82 0-37.774-11.833-80.1-26.396z" />
</font></defs></svg>